{
  "status": 200,
  "data": [
    {
      "subject": "Punctualiteit",
      "label": ["Uw behaalde score op gebied van punctualiteit", ""],
      "score": [8.5, 1.5]
    },
    {
      "subject": "Veiligheidsgevoel",
      "label": ["Uw behaalde score op gebied van veiligheidsgevoel", ""],
      "score": [8, 2]
    },
    {
      "subject": "Comfort",
      "label": ["Uw behaalde score op gebied van comfort", ""],
      "score": [6.5, 3.5]
    }
  ]
}